AE 05: Tidying StatSci Majors
…
Pivoting

Demo: Pivot the statsci data frame longer such that each row represents a degree type / year combination and year and number of graduates for that year are columns in the data frame.

statsci |> pivot_longer(cols = -degree, names_to = "year", values_to = "n")  

# A tibble: 52 × 3
   degree                    year      n
   <chr>                     <chr> <dbl>
 1 Statistical Science (AB2) 2011     NA
 2 Statistical Science (AB2) 2012      1
 3 Statistical Science (AB2) 2013     NA
 4 Statistical Science (AB2) 2014     NA
 5 Statistical Science (AB2) 2015      4
 6 Statistical Science (AB2) 2016      4
 7 Statistical Science (AB2) 2017      1
 8 Statistical Science (AB2) 2018     NA
 9 Statistical Science (AB2) 2019     NA
10 Statistical Science (AB2) 2020      1
# ℹ 42 more rows

Question: What is the type of the year variable? Why? What should it be?

Add your response here.

Demo: Start over with pivoting, and this time also make sure year is a numerical variable in the resulting data frame.

statsci |> pivot_longer(cols = -degree, names_to = "year", names_transform = as.numeric, values_to = "n")  

# A tibble: 52 × 3
   degree                     year     n
   <chr>                     <dbl> <dbl>
 1 Statistical Science (AB2)  2011    NA
 2 Statistical Science (AB2)  2012     1
 3 Statistical Science (AB2)  2013    NA
 4 Statistical Science (AB2)  2014    NA
 5 Statistical Science (AB2)  2015     4
 6 Statistical Science (AB2)  2016     4
 7 Statistical Science (AB2)  2017     1
 8 Statistical Science (AB2)  2018    NA
 9 Statistical Science (AB2)  2019    NA
10 Statistical Science (AB2)  2020     1
# ℹ 42 more rows

Question: What does an NA mean in this context? Hint: The data come from the university registrar, and they have records on every single graduates, there shouldn’t be anything “unknown” to them about who graduated when.

They represent 0s for that row entry

Demo: Add on to your pipeline that you started with pivoting and convert NAs in n to 0s.

#| label: convert-na

statsci |> pivot_longer(cols = -degree, names_to = "year", names_transform = as.numeric, values_to = "n") |> mutate(n = if_else(is.na(n),0,n)) 

# A tibble: 52 × 3
   degree                     year     n
   <chr>                     <dbl> <dbl>
 1 Statistical Science (AB2)  2011     0
 2 Statistical Science (AB2)  2012     1
 3 Statistical Science (AB2)  2013     0
 4 Statistical Science (AB2)  2014     0
 5 Statistical Science (AB2)  2015     4
 6 Statistical Science (AB2)  2016     4
 7 Statistical Science (AB2)  2017     1
 8 Statistical Science (AB2)  2018     0
 9 Statistical Science (AB2)  2019     0
10 Statistical Science (AB2)  2020     1
# ℹ 42 more rows

Demo: In our plot the degree types are BS, BS2, AB, and AB2. This information is in our dataset, in the degree column, but this column also has additional characters we don’t need. Create a new column called degree_type with levels BS, BS2, AB, and AB2 (in this order) based on degree. Do this by adding on to your pipeline from earlier.

statsci |> pivot_longer(cols = -degree, names_to = "year", names_transform = as.numeric, values_to = "n") |> mutate(n = if_else(is.na(n),0,n)) |> separate_wider_delim(degree, delim = "(", names = c("Major", "degree_type")) |>
  mutate(degree_type = str_remove(degree_type, "\\)"),
         degree_type = fct_relevel(degree_type, "BS","BS2","AB","AB2"))

# A tibble: 52 × 4
   Major                  degree_type  year     n
   <chr>                  <fct>       <dbl> <dbl>
 1 "Statistical Science " AB2          2011     0
 2 "Statistical Science " AB2          2012     1
 3 "Statistical Science " AB2          2013     0
 4 "Statistical Science " AB2          2014     0
 5 "Statistical Science " AB2          2015     4
 6 "Statistical Science " AB2          2016     4
 7 "Statistical Science " AB2          2017     1
 8 "Statistical Science " AB2          2018     0
 9 "Statistical Science " AB2          2019     0
10 "Statistical Science " AB2          2020     1
# ℹ 42 more rows
…
